{
  "type": "bubble",
  "data": {
    "datasets": [
      {
        "label": "Bubble example data",
        "data": [
          {
            "x": 4,
            "y": 8,
            "r": 32
          }, {
            "x": -3,
            "y": -1,
            "r": 15
          }
        ],
        "color": "blue"
      }
    ]
  },
  "options": {
    "scales": {
      "yAxes": [
        {
          "gridLines": {
            "display": true
          },
          "ticks": {
            "suggestedMin": -5,
            "suggestedMax": 15
          }
        }
      ],
      "xAxes": [
        {
          "gridLines": {
            "display": true
          },
          "ticks": {
            "suggestedMin": -10,
            "suggestedMax": 10
          }
        }
      ]
    }
  }
}
